{
    "compilerOptions": {
      "module": "commonjs",
      "target": "es6",
      "baseUrl": "./src",
      "sourceMap": true,
      "paths": {
        "components": [
          "./components"
        ],
        "pages": [
          "./pages"
        ],
        "libraries": [
          "./libraries"
        ],
        "configs": [
          "./configs"
        ],
        "assets": [
          "./assets"
        ],
        "utils": [
          "./utils"
        ],
        
      }
    },
    "exclude": [
      "node_modules",
      "**/node_modules/*"
    ]
  }